<?xml version="1.0" encoding="utf-8"?>
<!-- Generator: Adobe Illustrator 15.1.0, SVG Export Plug-In . SVG Version: 6.00 Build 0)  -->
<!DOCTYPE svg PUBLIC "-//W3C//DTD SVG 1.0//EN" "http://www.w3.org/TR/2001/REC-SVG-20010904/DTD/svg10.dtd">
<svg version="1.0" id="Layer_1" xmlns="http://www.w3.org/2000/svg" xmlns:xlink="http://www.w3.org/1999/xlink" x="0px" y="0px"
	 width="529.473px" height="500.975px" viewBox="0 0 529.473 500.975" enable-background="new 0 0 529.473 500.975"
	 xml:space="preserve">
<g>
	<g>
		<path fill="#96989A" d="M30.023,488.724c53.555-0.5,100.447-0.951,100.447-0.951s111.064-1.047,111.072-1.033l-0.008,0.027
			l23.322-0.221c6.787-0.057,13.51-0.402,20.137-0.994c25.117-2.24,49.113-8.221,71.865-17.895
			c28.963-12.268,53.992-29.033,75.244-50.35c21.264-21.316,37.859-46.322,49.775-74.98c11.898-28.582,17.693-58.953,17.387-90.941
			c-0.305-31.898-6.668-61.828-19.102-89.674c-12.447-27.85-29.518-52.209-51.189-73.119
			c-21.641-20.934-46.996-37.266-76.174-48.945c-29.031-11.715-59.848-17.457-92.35-17.154
			c-32.426,0.309-62.811,6.641-91.135,18.891c-28.283,12.232-53.084,29.033-74.33,50.383
			c-21.281,21.316-37.859,45.992-49.793,74.072c-11.906,28.082-17.688,58.125-17.383,90.025L30.023,488.724z"/>
	</g>
</g>
</svg>
