<?xml version="1.0" encoding="utf-8"?>
<!-- Generator: Adobe Illustrator 15.1.0, SVG Export Plug-In . SVG Version: 6.00 Build 0)  -->
<!DOCTYPE svg PUBLIC "-//W3C//DTD SVG 1.1//EN" "http://www.w3.org/Graphics/SVG/1.1/DTD/svg11.dtd">
<svg version="1.1" id="Layer_1" xmlns="http://www.w3.org/2000/svg" xmlns:xlink="http://www.w3.org/1999/xlink" x="0px" y="0px"
	 width="825px" height="51px" viewBox="0 0 825 51" enable-background="new 0 0 825 51" xml:space="preserve">
<g enable-background="new    ">
	<path fill="#6EC4DA" d="M17.148,32.775l2.868-20.191h0.337l8.212,16.563l8.127-16.563h0.337l2.869,20.191H37.93L35.962,18.32
		l-7.143,14.455h-0.506l-7.255-14.567l-1.94,14.567H17.148z"/>
	<path fill="#6EC4DA" d="M58.462,25.352c0,4.246-3.29,7.817-7.79,7.817s-7.79-3.571-7.79-7.817c0-4.275,3.318-7.902,7.79-7.902
		C55.144,17.449,58.462,21.076,58.462,25.352z M44.851,25.379c0,3.263,2.447,5.935,5.821,5.935c3.346,0,5.821-2.672,5.821-5.935
		c0-3.318-2.644-6.074-5.821-6.074C47.466,19.305,44.851,22.061,44.851,25.379z"/>
	<path fill="#6EC4DA" d="M74.072,32.775h-1.913v-7.649c0-1.152-0.112-2.109-0.141-2.784c-0.084-1.631-1.406-3.037-3.375-3.037
		c-1.322,0-2.644,0.647-3.487,1.744c-1.069,1.378-1.266,3.149-1.266,5.399v6.327h-1.912V17.843h1.912v2.559
		c1.322-1.912,2.981-2.952,5.118-2.952c2.278,0,3.909,1.181,4.725,3.6c1.322-2.391,3.29-3.6,5.483-3.6
		c3.094,0,5.09,2.222,5.09,6.468v8.858h-1.912V24.62c0-1.097-0.141-1.969-0.169-2.531c-0.084-1.321-1.35-2.784-3.375-2.784
		c-1.856,0-3.487,1.125-4.247,3.037c-0.478,1.21-0.534,2.531-0.534,3.909V32.775z"/>
	<path fill="#6EC4DA" d="M88.191,29.654c0.956,1.068,1.997,1.659,3.122,1.659c1.462,0,2.756-1.069,2.756-2.476
		c0-0.871-0.506-1.687-1.237-2.081c-3.431-1.912-5.174-2.728-5.174-5.343c0-2.362,1.828-3.965,4.105-3.965
		c1.631,0,2.869,0.787,4.134,2.024l-1.237,1.266c-0.9-0.872-1.8-1.435-3.009-1.435c-1.237,0-2.25,0.872-2.25,1.997
		c0,0.759,0.479,1.603,1.153,1.996c3.431,1.997,5.343,2.757,5.343,5.456c0,2.334-1.8,4.415-4.5,4.415
		c-1.659,0-3.347-0.759-4.416-2.137L88.191,29.654z"/>
</g>
<g enable-background="new    ">
	<path fill="#6EC4DA" d="M119.999,17.843h1.884v14.933h-1.884v-2.56c-1.631,1.969-3.684,2.925-6.018,2.925
		c-4.359,0-7.649-3.627-7.649-7.874c0-4.246,3.375-7.817,7.706-7.817c2.418,0,4.471,1.04,5.961,3.121V17.843z M108.3,25.323
		c0,3.233,2.531,6.074,5.878,6.074c3.065,0,5.961-2.306,5.961-6.019c0-3.459-2.587-6.074-5.934-6.074
		C110.775,19.305,108.3,22.117,108.3,25.323z"/>
</g>
<g enable-background="new    ">
	<path fill="#6EC4DA" d="M127.481,20.008c1.125-1.631,2.334-2.559,3.853-2.559c0.872,0,1.322,0.281,1.715,0.506l-1.012,1.631
		c-0.225-0.112-0.59-0.281-1.012-0.281c-1.406,0-2.672,1.21-3.234,3.263c-0.253,0.956-0.309,2.503-0.309,4.527v5.681h-2.025V17.843
		h2.025V20.008z"/>
</g>
<g enable-background="new    ">
	<path fill="#6EC4DA" d="M135.862,25.464c0.084,3.431,2.418,5.934,5.625,5.934c3.121,0,4.612-1.771,5.708-3.571l1.603,0.844
		c-1.519,2.98-3.853,4.471-7.115,4.471c-4.95,0-7.79-3.796-7.79-7.789c0-4.078,3.009-7.902,7.677-7.902
		c4.247,0,7.677,3.065,7.734,8.015H135.862z M147.195,23.776c-0.788-3.094-3.009-4.472-5.596-4.472c-2.671,0-4.668,1.435-5.54,4.472
		H147.195z"/>
	<path fill="#6EC4DA" d="M154.791,20.515c1.546-2.025,3.402-3.065,5.596-3.065c3.262,0,5.54,2.249,5.54,6.946v8.38h-1.913v-8.127
		c0-3.516-1.097-5.456-3.993-5.456c-1.603,0-2.925,0.703-3.937,2.024c-1.125,1.463-1.293,2.925-1.293,5.287v6.271h-1.913V17.843
		h1.913V20.515z"/>
	<path fill="#6EC4DA" d="M173.83,14.721c0,2.138-0.337,3.291-1.153,4.894l-1.069-0.618c0.422-0.844,0.788-1.52,0.957-3.15h-1.209
		v-3.768h2.475V14.721z"/>
	<path fill="#6EC4DA" d="M181.621,12.274h1.913v5.568h3.065v1.688h-3.065v13.245h-1.913V19.53h-2.643v-1.688h2.643V12.274z"/>
</g>
<g enable-background="new    ">
	<path fill="#6EC4DA" d="M198.861,12.274h1.913v5.568h3.065v1.688h-3.065v13.245h-1.913V19.53h-2.643v-1.688h2.643V12.274z"/>
	<path fill="#6EC4DA" d="M219.672,17.843h1.884v14.933h-1.884v-2.56c-1.631,1.969-3.684,2.925-6.018,2.925
		c-4.359,0-7.649-3.627-7.649-7.874c0-4.246,3.375-7.817,7.706-7.817c2.418,0,4.471,1.04,5.961,3.121V17.843z M207.974,25.323
		c0,3.233,2.531,6.074,5.878,6.074c3.065,0,5.961-2.306,5.961-6.019c0-3.459-2.587-6.074-5.934-6.074
		C210.449,19.305,207.974,22.117,207.974,25.323z"/>
	<path fill="#6EC4DA" d="M225.608,12.078h1.913v20.697h-1.913V12.078z"/>
	<path fill="#6EC4DA" d="M231.542,12.078h1.912V23.86l6.89-6.018h2.84l-8.184,7.114l8.662,7.818h-2.728l-7.48-6.721v6.721h-1.912
		V12.078z"/>
	<path fill="#6EC4DA" d="M247.911,13.259c0,0.872-0.731,1.603-1.603,1.603c-0.872,0-1.575-0.73-1.575-1.603
		c0-0.9,0.731-1.575,1.575-1.575C247.18,11.684,247.911,12.387,247.911,13.259z M245.38,17.843h1.912v14.933h-1.912V17.843z"/>
	<path fill="#6EC4DA" d="M253.17,20.515c1.547-2.025,3.403-3.065,5.597-3.065c3.262,0,5.54,2.249,5.54,6.946v8.38h-1.913v-8.127
		c0-3.516-1.097-5.456-3.993-5.456c-1.603,0-2.925,0.703-3.937,2.024c-1.125,1.463-1.294,2.925-1.294,5.287v6.271h-1.912V17.843
		h1.912V20.515z"/>
	<path fill="#6EC4DA" d="M283.234,29.738c0,2.446-0.141,4.472-1.35,6.131c-1.266,1.715-3.487,2.728-6.328,2.728
		c-4.303,0-6.384-1.743-7.706-4.641h2.081c1.125,1.969,2.869,2.897,5.512,2.897c2.475,0,4.302-0.9,5.202-2.531
		c0.562-1.041,0.647-2.109,0.647-3.263v-1.124c-1.49,1.884-3.656,2.84-5.99,2.84c-4.134,0-7.649-3.149-7.649-7.564
		c0-4.443,3.684-7.762,7.649-7.762c2.643,0,4.415,1.125,5.99,2.98v-2.587h1.94V29.738z M269.623,25.323
		c0,2.98,2.109,5.596,6.046,5.596c3.262,0,5.709-2.249,5.709-5.736c0-3.6-2.672-5.878-5.765-5.878
		C272.266,19.305,269.623,21.864,269.623,25.323z"/>
</g>
<g enable-background="new    ">
	<path fill="#6EC4DA" d="M308.067,17.843h1.884v14.933h-1.884v-2.56c-1.631,1.969-3.684,2.925-6.018,2.925
		c-4.359,0-7.649-3.627-7.649-7.874c0-4.246,3.375-7.817,7.706-7.817c2.418,0,4.471,1.04,5.961,3.121V17.843z M296.368,25.323
		c0,3.233,2.531,6.074,5.878,6.074c3.065,0,5.961-2.306,5.961-6.019c0-3.459-2.587-6.074-5.934-6.074
		C298.843,19.305,296.368,22.117,296.368,25.323z"/>
	<path fill="#6EC4DA" d="M316.337,32.775h-1.912V12.078h1.912v8.323c1.631-1.968,3.656-2.952,5.99-2.952
		c4.359,0,7.677,3.627,7.677,7.874c0,4.218-3.375,7.846-7.733,7.846c-2.418,0-4.415-1.068-5.934-3.149V32.775z M328.036,25.267
		c0-3.233-2.559-6.074-5.905-6.074c-3.065,0-5.934,2.278-5.934,6.019c0,3.459,2.56,6.103,5.934,6.103
		C325.589,31.313,328.036,28.473,328.036,25.267z"/>
	<path fill="#6EC4DA" d="M348.341,25.352c0,4.246-3.29,7.817-7.79,7.817s-7.79-3.571-7.79-7.817c0-4.275,3.318-7.902,7.79-7.902
		C345.023,17.449,348.341,21.076,348.341,25.352z M334.73,25.379c0,3.263,2.446,5.935,5.821,5.935c3.346,0,5.821-2.672,5.821-5.935
		c0-3.318-2.644-6.074-5.821-6.074C337.346,19.305,334.73,22.061,334.73,25.379z"/>
	<path fill="#6EC4DA" d="M362.742,17.843h2.025v7.733c0,5.034-2.278,7.564-6.552,7.564c-4.275,0-6.581-2.53-6.581-7.564v-7.733
		h2.025v7.283c0,1.575,0,2.869,0.421,3.769c0.703,1.519,2.25,2.391,4.134,2.391c1.378,0,2.587-0.507,3.375-1.322
		c1.181-1.266,1.153-2.699,1.153-4.837V17.843z"/>
	<path fill="#6EC4DA" d="M370.702,12.274h1.913v5.568h3.065v1.688h-3.065v13.245h-1.913V19.53h-2.643v-1.688h2.643V12.274z"/>
</g>
<g enable-background="new    ">
	<path fill="#6EC4DA" d="M399.248,17.843h1.884v14.933h-1.884v-2.56c-1.631,1.969-3.684,2.925-6.018,2.925
		c-4.359,0-7.649-3.627-7.649-7.874c0-4.246,3.375-7.817,7.706-7.817c2.418,0,4.471,1.04,5.961,3.121V17.843z M387.549,25.323
		c0,3.233,2.531,6.074,5.878,6.074c3.065,0,5.961-2.306,5.961-6.019c0-3.459-2.587-6.074-5.934-6.074
		C390.024,19.305,387.549,22.117,387.549,25.323z"/>
	<path fill="#6EC4DA" d="M419.977,29.767c-1.463,2.222-3.994,3.374-7.002,3.374c-4.921,0-8.212-3.543-8.212-7.705
		c0-4.387,3.431-7.986,8.353-7.986c2.867,0,5.482,1.181,6.861,3.487l-1.547,0.956c-1.322-1.744-3.15-2.588-5.399-2.588
		c-3.796,0-6.299,2.784-6.299,5.99c0,3.262,2.475,6.103,6.328,6.103c2.165,0,3.965-0.872,5.371-2.615L419.977,29.767z"/>
	<path fill="#6EC4DA" d="M425.574,20.515c1.547-2.025,3.402-3.065,5.596-3.065c3.263,0,5.541,2.249,5.541,6.946v8.38h-1.913v-8.127
		c0-3.516-1.097-5.456-3.993-5.456c-1.604,0-2.925,0.703-3.938,2.024c-1.125,1.463-1.293,2.925-1.293,5.287v6.271h-1.912V17.843
		h1.912V20.515z"/>
	<path fill="#6EC4DA" d="M442.083,25.464c0.085,3.431,2.419,5.934,5.624,5.934c3.121,0,4.612-1.771,5.709-3.571l1.604,0.844
		c-1.52,2.98-3.854,4.471-7.115,4.471c-4.949,0-7.79-3.796-7.79-7.789c0-4.078,3.009-7.902,7.677-7.902
		c4.247,0,7.678,3.065,7.734,8.015H442.083z M453.416,23.776c-0.787-3.094-3.009-4.472-5.596-4.472
		c-2.672,0-4.669,1.435-5.541,4.472H453.416z"/>
</g>
<g enable-background="new    ">
	<path fill="#6EC4DA" d="M479.796,17.843h1.884v14.933h-1.884v-2.56c-1.631,1.969-3.684,2.925-6.019,2.925
		c-4.358,0-7.648-3.627-7.648-7.874c0-4.246,3.375-7.817,7.705-7.817c2.419,0,4.472,1.04,5.962,3.121V17.843z M468.098,25.323
		c0,3.233,2.531,6.074,5.877,6.074c3.065,0,5.962-2.306,5.962-6.019c0-3.459-2.587-6.074-5.934-6.074
		C470.572,19.305,468.098,22.117,468.098,25.323z"/>
	<path fill="#6EC4DA" d="M485.816,29.654c0.956,1.068,1.996,1.659,3.121,1.659c1.463,0,2.756-1.069,2.756-2.476
		c0-0.871-0.506-1.687-1.236-2.081c-3.432-1.912-5.175-2.728-5.175-5.343c0-2.362,1.827-3.965,4.105-3.965
		c1.632,0,2.868,0.787,4.134,2.024l-1.236,1.266c-0.9-0.872-1.801-1.435-3.01-1.435c-1.237,0-2.25,0.872-2.25,1.997
		c0,0.759,0.479,1.603,1.153,1.996c3.431,1.997,5.343,2.757,5.343,5.456c0,2.334-1.799,4.415-4.499,4.415
		c-1.659,0-3.347-0.759-4.415-2.137L485.816,29.654z"/>
</g>
<g enable-background="new    ">
	<path fill="#6EC4DA" d="M516.725,32.775h-1.913v-7.649c0-1.152-0.112-2.109-0.141-2.784c-0.084-1.631-1.405-3.037-3.374-3.037
		c-1.322,0-2.645,0.647-3.487,1.744c-1.069,1.378-1.266,3.149-1.266,5.399v6.327h-1.912V17.843h1.912v2.559
		c1.321-1.912,2.981-2.952,5.118-2.952c2.277,0,3.909,1.181,4.725,3.6c1.322-2.391,3.29-3.6,5.483-3.6
		c3.094,0,5.091,2.222,5.091,6.468v8.858h-1.912V24.62c0-1.097-0.141-1.969-0.17-2.531c-0.084-1.321-1.35-2.784-3.374-2.784
		c-1.856,0-3.487,1.125-4.247,3.037c-0.478,1.21-0.533,2.531-0.533,3.909V32.775z"/>
	<path fill="#6EC4DA" d="M541.896,17.843h2.024v7.733c0,5.034-2.277,7.564-6.552,7.564s-6.581-2.53-6.581-7.564v-7.733h2.025v7.283
		c0,1.575,0,2.869,0.422,3.769c0.703,1.519,2.25,2.391,4.134,2.391c1.378,0,2.587-0.507,3.374-1.322
		c1.182-1.266,1.153-2.699,1.153-4.837V17.843z"/>
	<path fill="#6EC4DA" d="M562.651,29.767c-1.462,2.222-3.993,3.374-7.003,3.374c-4.921,0-8.211-3.543-8.211-7.705
		c0-4.387,3.431-7.986,8.352-7.986c2.869,0,5.484,1.181,6.862,3.487l-1.547,0.956c-1.321-1.744-3.149-2.588-5.399-2.588
		c-3.797,0-6.299,2.784-6.299,5.99c0,3.262,2.475,6.103,6.326,6.103c2.166,0,3.966-0.872,5.372-2.615L562.651,29.767z"/>
	<path fill="#6EC4DA" d="M566.337,12.078h1.912v8.437c1.547-2.025,3.375-3.065,5.597-3.065c3.234,0,5.512,2.277,5.512,6.749v8.577
		h-1.912v-8.127c0-3.516-1.068-5.456-3.965-5.456c-1.604,0-2.926,0.703-3.938,2.024c-1.097,1.435-1.294,2.897-1.294,5.287v6.271
		h-1.912V12.078z"/>
</g>
<g enable-background="new    ">
	<path fill="#6EC4DA" d="M604.191,17.843h1.884v14.933h-1.884v-2.56c-1.631,1.969-3.684,2.925-6.019,2.925
		c-4.358,0-7.649-3.627-7.649-7.874c0-4.246,3.375-7.817,7.706-7.817c2.419,0,4.472,1.04,5.962,3.121V17.843z M592.492,25.323
		c0,3.233,2.531,6.074,5.878,6.074c3.065,0,5.962-2.306,5.962-6.019c0-3.459-2.588-6.074-5.934-6.074
		C594.967,19.305,592.492,22.117,592.492,25.323z"/>
	<path fill="#6EC4DA" d="M610.211,29.654c0.957,1.068,1.997,1.659,3.122,1.659c1.462,0,2.756-1.069,2.756-2.476
		c0-0.871-0.507-1.687-1.237-2.081c-3.431-1.912-5.174-2.728-5.174-5.343c0-2.362,1.827-3.965,4.105-3.965
		c1.631,0,2.868,0.787,4.134,2.024l-1.237,1.266c-0.9-0.872-1.8-1.435-3.01-1.435c-1.236,0-2.249,0.872-2.249,1.997
		c0,0.759,0.478,1.603,1.153,1.996c3.43,1.997,5.343,2.757,5.343,5.456c0,2.334-1.8,4.415-4.499,4.415
		c-1.66,0-3.348-0.759-4.416-2.137L610.211,29.654z"/>
</g>
<g enable-background="new    ">
	<path fill="#6EC4DA" d="M627.451,17.843h2.024l5.146,11.502l4.978-11.502h2.053l-8.914,20.389h-2.025l2.869-6.581L627.451,17.843z"
		/>
	<path fill="#6EC4DA" d="M659.005,25.352c0,4.246-3.29,7.817-7.79,7.817c-4.499,0-7.789-3.571-7.789-7.817
		c0-4.275,3.318-7.902,7.789-7.902C655.687,17.449,659.005,21.076,659.005,25.352z M645.395,25.379c0,3.263,2.445,5.935,5.82,5.935
		c3.347,0,5.822-2.672,5.822-5.935c0-3.318-2.645-6.074-5.822-6.074C648.01,19.305,645.395,22.061,645.395,25.379z"/>
	<path fill="#6EC4DA" d="M673.405,17.843h2.024v7.733c0,5.034-2.277,7.564-6.552,7.564s-6.581-2.53-6.581-7.564v-7.733h2.025v7.283
		c0,1.575,0,2.869,0.422,3.769c0.703,1.519,2.25,2.391,4.134,2.391c1.378,0,2.587-0.507,3.374-1.322
		c1.182-1.266,1.153-2.699,1.153-4.837V17.843z"/>
	<path fill="#6EC4DA" d="M683.446,14.721c0,2.138-0.337,3.291-1.153,4.894l-1.068-0.618c0.422-0.844,0.787-1.52,0.957-3.15h-1.21
		v-3.768h2.475V14.721z"/>
	<path fill="#6EC4DA" d="M702.543,30.216c-1.631,1.969-3.685,2.925-6.019,2.925c-4.358,0-7.649-3.627-7.649-7.874
		c0-4.246,3.375-7.817,7.705-7.817c2.419,0,4.473,1.04,5.963,3.121v-8.492h1.912v20.697h-1.912V30.216z M690.844,25.323
		c0,3.233,2.531,6.074,5.877,6.074c3.066,0,5.934-2.306,5.934-6.019c0-3.459-2.559-6.074-5.904-6.074
		C693.318,19.305,690.844,22.117,690.844,25.323z"/>
</g>
<g enable-background="new    ">
	<path fill="#6EC4DA" d="M718.237,12.274h1.913v5.568h3.064v1.688h-3.064v13.245h-1.913V19.53h-2.644v-1.688h2.644V12.274z"/>
	<path fill="#6EC4DA" d="M726.057,12.078h1.912v8.437c1.547-2.025,3.375-3.065,5.596-3.065c3.234,0,5.512,2.277,5.512,6.749v8.577
		h-1.912v-8.127c0-3.516-1.068-5.456-3.965-5.456c-1.604,0-2.925,0.703-3.938,2.024c-1.096,1.435-1.293,2.897-1.293,5.287v6.271
		h-1.912V12.078z"/>
	<path fill="#6EC4DA" d="M745.49,13.259c0,0.872-0.731,1.603-1.604,1.603c-0.871,0-1.574-0.73-1.574-1.603
		c0-0.9,0.73-1.575,1.574-1.575C744.759,11.684,745.49,12.387,745.49,13.259z M742.959,17.843h1.912v14.933h-1.912V17.843z"/>
	<path fill="#6EC4DA" d="M750.749,20.515c1.547-2.025,3.403-3.065,5.597-3.065c3.262,0,5.54,2.249,5.54,6.946v8.38h-1.913v-8.127
		c0-3.516-1.096-5.456-3.992-5.456c-1.604,0-2.926,0.703-3.938,2.024c-1.125,1.463-1.294,2.925-1.294,5.287v6.271h-1.912V17.843
		h1.912V20.515z"/>
	<path fill="#6EC4DA" d="M766.021,12.078h1.912V23.86l6.89-6.018h2.841l-8.184,7.114l8.661,7.818h-2.728l-7.48-6.721v6.721h-1.912
		V12.078z"/>
	<path fill="#6EC4DA" d="M784.357,31.454c0,0.956-0.759,1.715-1.688,1.715c-0.955,0-1.687-0.787-1.687-1.715
		c0-0.929,0.759-1.716,1.687-1.716C783.57,29.738,784.357,30.497,784.357,31.454z M793.75,31.454c0,0.956-0.759,1.715-1.688,1.715
		c-0.928,0-1.687-0.787-1.687-1.715c0-0.929,0.759-1.716,1.687-1.716C792.963,29.738,793.75,30.497,793.75,31.454z M803.115,31.454
		c0,0.956-0.76,1.715-1.688,1.715s-1.688-0.759-1.688-1.715c0-0.957,0.787-1.716,1.688-1.716
		C802.355,29.738,803.115,30.497,803.115,31.454z"/>
	<path fill="#6EC4DA" d="M812.033,31.454c0,0.956-0.76,1.715-1.688,1.715c-0.957,0-1.688-0.787-1.688-1.715
		c0-0.929,0.76-1.716,1.688-1.716C811.246,29.738,812.033,30.497,812.033,31.454z"/>
</g>
</svg>
