<?xml version="1.0" encoding="utf-8"?>
<!-- Generator: Adobe Illustrator 15.1.0, SVG Export Plug-In . SVG Version: 6.00 Build 0)  -->
<!DOCTYPE svg PUBLIC "-//W3C//DTD SVG 1.0//EN" "http://www.w3.org/TR/2001/REC-SVG-20010904/DTD/svg10.dtd">
<svg version="1.0" id="Layer_1" xmlns="http://www.w3.org/2000/svg" xmlns:xlink="http://www.w3.org/1999/xlink" x="0px" y="0px"
	 width="434px" height="208px" viewBox="0 0 434 208" enable-background="new 0 0 434 208" xml:space="preserve">
<path fill="#1C3F94" d="M277.821,198.313v-0.064h55.123c12.682,0,24.518-2.367,35.463-7.078
	c10.945-4.738,20.537-11.223,28.779-19.465c8.23-8.244,14.723-17.836,19.449-28.793c4.727-10.93,7.105-22.75,7.105-35.449
	c0-12.439-2.379-24.191-7.105-35.256c-4.727-11.092-11.219-20.822-19.449-29.193c-8.242-8.383-17.834-14.934-28.779-19.66
	c-10.945-4.713-22.781-7.092-35.463-7.092c-12.438,0-24.188,2.379-35.271,7.092c-11.08,4.727-20.814,11.277-29.166,19.66
	c-8.006,7.98-14.287,17.252-18.945,27.699l-25.453,47.199l1.066,0.906H246.6v38.73v40.764H277.821z M277.821,162.172V138.78v-25.885
	h-0.01v-5.432c0-1.582,0.068-3.146,0.191-4.695c0.473-5.855,1.834-11.459,4.072-16.779c2.842-6.773,6.76-12.645,11.752-17.637
	c4.994-5.002,10.877-8.924,17.639-11.766c6.732-2.83,13.91-4.248,21.479-4.248c7.549,0,14.656,1.418,21.277,4.248
	c6.609,2.842,12.422,6.764,17.42,11.766c4.998,4.992,8.92,10.863,11.748,17.637c2.842,6.732,4.271,13.898,4.271,21.475
	c0,7.551-1.43,14.648-4.271,21.275c-2.828,6.609-6.75,12.432-11.748,17.428c-4.998,5.002-10.811,8.918-17.42,11.758
	c-6.621,2.842-13.729,4.248-21.277,4.248H277.821z"/>
<path fill="#099EC2" d="M188.676,197.577v-79.496h21.422l1.064-0.902l-25.451-47.199c-4.658-10.451-10.955-19.721-18.947-27.701
	c-8.355-8.385-18.09-14.932-29.176-19.658c-11.08-4.711-22.832-7.094-35.268-7.094c-12.682,0-24.514,2.383-35.455,7.094
	c-10.949,4.727-20.545,11.273-28.777,19.658c-8.236,8.373-14.725,18.105-19.455,29.186c-4.719,11.074-7.1,22.824-7.1,35.268
	c0,12.697,2.381,24.516,7.1,35.449c4.73,10.951,11.219,20.549,19.455,28.793c8.232,8.238,17.828,14.725,28.777,19.453
	c10.941,4.723,22.773,7.09,35.455,7.09h55.131v0.061H188.676z M102.321,161.44c-7.555,0-14.646-1.418-21.27-4.248
	c-6.621-2.842-12.418-6.76-17.424-11.76c-5.004-4.998-8.922-10.816-11.762-17.43c-2.828-6.625-4.26-13.725-4.26-21.271
	c0-7.576,1.432-14.742,4.26-21.479c2.84-6.773,6.758-12.641,11.762-17.639c5.006-4.998,10.803-8.92,17.424-11.76
	c6.623-2.836,13.715-4.248,21.27-4.248c7.578,0,14.746,1.412,21.492,4.248c6.744,2.84,12.627,6.762,17.627,11.76
	s8.916,10.865,11.752,17.639c2.238,5.32,3.604,10.926,4.072,16.779c0.129,1.547,0.193,3.117,0.193,4.699v5.432h-0.006
	c-0.012,0-0.012,25.881-0.012,25.881v23.396H102.321z"/>
</svg>
